\relax 
\providecommand\hyper@newdestlabel[2]{}
\providecommand\HyperFirstAtBeginDocument{\AtBeginDocument}
\HyperFirstAtBeginDocument{\ifx\hyper@anchor\@undefined
\global\let\oldcontentsline\contentsline
\gdef\contentsline#1#2#3#4{\oldcontentsline{#1}{#2}{#3}}
\global\let\oldnewlabel\newlabel
\gdef\newlabel#1#2{\newlabelxx{#1}#2}
\gdef\newlabelxx#1#2#3#4#5#6{\oldnewlabel{#1}{{#2}{#3}}}
\AtEndDocument{\ifx\hyper@anchor\@undefined
\let\contentsline\oldcontentsline
\let\newlabel\oldnewlabel
\fi}
\fi}
\global\let\hyper@last\relax 
\gdef\HyperFirstAtBeginDocument#1{#1}
\providecommand\HyField@AuxAddToFields[1]{}
\providecommand\HyField@AuxAddToCoFields[2]{}
\catcode `"\active 
\select@language{estonian}
\@writefile{toc}{\select@language{estonian}}
\@writefile{lof}{\select@language{estonian}}
\@writefile{lot}{\select@language{estonian}}
\@writefile{toc}{\contentsline {chapter}{Joonised}{3}{chapter*.2}}
\@writefile{toc}{\contentsline {chapter}{\numberline {1}Sissejuhatus}{4}{chapter.1}}
\@writefile{lof}{\addvspace {10\p@ }}
\@writefile{lot}{\addvspace {10\p@ }}
\@writefile{toc}{\contentsline {section}{\numberline {1.1}\IeC {\"U}lesande p\IeC {\"u}stitus}{4}{section.1.1}}
\@writefile{toc}{\contentsline {section}{\numberline {1.2}Faili sisselugemine}{4}{section.1.2}}
\@writefile{toc}{\contentsline {section}{\numberline {1.3}Vokaali ajaesitus}{4}{section.1.3}}
\newlabel{eq:fourier}{{1.1}{4}{Vokaali ajaesitus}{equation.1.3.1}{}}
\@writefile{lof}{\contentsline {figure}{\numberline {1.1}{\ignorespaces Vokaali 'e' ajaline esitus}}{5}{figure.1.1}}
\newlabel{fig:e_aeg}{{1.1}{5}{Vokaali 'e' ajaline esitus}{figure.1.1}{}}
\@writefile{toc}{\contentsline {section}{\numberline {1.4}Ajaesitusest sagedusesitusse}{5}{section.1.4}}
\@writefile{lof}{\contentsline {figure}{\numberline {1.2}{\ignorespaces Vokaali '\IeC {\"a}' ajaline esitus}}{6}{figure.1.2}}
\newlabel{fig:2_aeg}{{1.2}{6}{Vokaali 'ä' ajaline esitus}{figure.1.2}{}}
\@writefile{lof}{\contentsline {figure}{\numberline {1.3}{\ignorespaces Vokaali 'e' sagedusspekter}}{7}{figure.1.3}}
\newlabel{fig:e_spekter}{{1.3}{7}{Vokaali 'e' sagedusspekter}{figure.1.3}{}}
\@writefile{lof}{\contentsline {figure}{\numberline {1.4}{\ignorespaces Vokaali '\IeC {\"a}' sagedusspeketer}}{7}{figure.1.4}}
\newlabel{fig:2_spekter}{{1.4}{7}{Vokaali 'ä' sagedusspeketer}{figure.1.4}{}}
\@writefile{toc}{\contentsline {chapter}{\numberline {2}Vokaalide v\IeC {\~o}rdlus}{8}{chapter.2}}
\@writefile{lof}{\addvspace {10\p@ }}
\@writefile{lot}{\addvspace {10\p@ }}
\@writefile{toc}{\contentsline {section}{\numberline {2.1}Kuidas vokaale v\IeC {\~o}rrelda?}{8}{section.2.1}}
\@writefile{toc}{\contentsline {section}{\numberline {2.2}P\IeC {\~o}hisageduse saamise algoritm}{8}{section.2.2}}
\@writefile{lof}{\contentsline {figure}{\numberline {2.1}{\ignorespaces Vokaali '\IeC {\"a}' sagedusspeketer p\IeC {\~o}hisagedusete intervallidega}}{9}{figure.2.1}}
\newlabel{fig:2_spekter_int}{{2.1}{9}{Vokaali 'ä' sagedusspeketer põhisagedusete intervallidega}{figure.2.1}{}}
\@writefile{toc}{\contentsline {section}{\numberline {2.3}Sagedusspektrist harmoonikumite saamise algoritm}{9}{section.2.3}}
\@writefile{toc}{\contentsline {section}{\numberline {2.4}Erinevate vokaalide v\IeC {\~o}rdlemise algoritm}{10}{section.2.4}}
\@writefile{toc}{\contentsline {chapter}{\numberline {3}Tulemused}{12}{chapter.3}}
\@writefile{lof}{\addvspace {10\p@ }}
\@writefile{lot}{\addvspace {10\p@ }}
\@writefile{toc}{\contentsline {section}{\numberline {3.1}Tulemused esimesel meetodil}{12}{section.3.1}}
\@writefile{toc}{\contentsline {section}{\numberline {3.2}Tulemused Mihkel Kree muudatustega}{16}{section.3.2}}
\@writefile{toc}{\contentsline {chapter}{\numberline {4}Kokkuv\IeC {\~o}te}{21}{chapter.4}}
\@writefile{lof}{\addvspace {10\p@ }}
\@writefile{lot}{\addvspace {10\p@ }}
